<svg width="12" height="13" viewBox="0 0 12 13" fill="none"
  xmlns="http://www.w3.org/2000/svg">
  <g clip-path="url(#clip0)">
    <path d="M7.60022 0.183594H4.4002C3.1872 0.183594 2.2002 1.17059 2.2002 2.3836V9.98361C2.2002 11.1966 3.1872 12.1836 4.4002 12.1836H7.60019C8.8132 12.1836 9.8002 11.1966 9.8002 9.98361V2.3836C9.8002 1.17059 8.8132 0.183594 7.60022 0.183594ZM9.40022 9.98359C9.40022 10.9762 8.59261 11.7836 7.60022 11.7836H4.4002C3.40781 11.7836 2.6002 10.9762 2.6002 9.98359V2.3836C2.6002 1.391 3.40781 0.583602 4.4002 0.583602H7.60019C8.59259 0.583602 9.4002 1.391 9.4002 2.3836V9.98359H9.40022Z" />
    <path d="M4.2002 1.18359C3.64881 1.18359 3.2002 1.63219 3.2002 2.1836C3.2002 2.73499 3.64879 3.1836 4.2002 3.1836C4.75159 3.1836 5.20021 2.73501 5.20021 2.1836C5.20021 1.63219 4.75159 1.18359 4.2002 1.18359ZM4.2002 2.78357C3.86941 2.78357 3.6002 2.51437 3.6002 2.18358C3.6002 1.85278 3.86941 1.58358 4.2002 1.58358C4.531 1.58358 4.8002 1.85278 4.8002 2.18358C4.8002 2.51437 4.531 2.78357 4.2002 2.78357Z" />
    <path d="M6.79962 5.58301H5.19961C4.86881 5.58301 4.59961 5.85221 4.59961 6.18301C4.59961 6.51381 4.86881 6.78301 5.19961 6.78301H6.79962C7.13042 6.78301 7.39963 6.51381 7.39963 6.18301C7.39963 5.85221 7.13042 5.58301 6.79962 5.58301ZM6.79962 6.383H5.19961C5.08941 6.383 4.99962 6.2934 4.99962 6.18301C4.99962 6.07262 5.08941 5.98302 5.19961 5.98302H6.79962C6.90983 5.98302 6.99962 6.07262 6.99962 6.18301C6.99962 6.2934 6.90983 6.383 6.79962 6.383Z" />
    <path d="M6.79962 7.9834H5.19961C4.86881 7.9834 4.59961 8.2526 4.59961 8.5834C4.59961 8.9142 4.86881 9.1834 5.19961 9.1834H6.79962C7.13042 9.1834 7.39963 8.9142 7.39963 8.5834C7.39963 8.2526 7.13042 7.9834 6.79962 7.9834ZM6.79962 8.78339H5.19961C5.08941 8.78339 4.99962 8.69379 4.99962 8.5834C4.99962 8.47301 5.08941 8.38341 5.19961 8.38341H6.79962C6.90983 8.38341 6.99962 8.47301 6.99962 8.5834C6.99962 8.69379 6.90983 8.78339 6.79962 8.78339Z" />
    <path d="M6.80041 3.58301H5.20039C4.208 3.58301 3.40039 4.3904 3.40039 5.383V6.18299C3.40039 6.29359 3.48999 6.38298 3.60038 6.38298H4.80039C4.91078 6.38298 5.00038 6.29359 5.00038 6.18299C5.00038 6.0726 5.09017 5.983 5.20037 5.983H6.80038C6.91059 5.983 7.00038 6.0726 7.00038 6.18299C7.00038 6.29359 7.08998 6.38298 7.20037 6.38298H8.40037C8.51076 6.38298 8.60036 6.29359 8.60036 6.18299V5.383C8.60041 4.3904 7.79282 3.58301 6.80041 3.58301ZM8.20021 5.983H7.366C7.28359 5.7502 7.06101 5.58299 6.80019 5.58299H5.20018C4.93939 5.58299 4.71697 5.7502 4.63438 5.983H3.80017V5.383C3.80017 4.61121 4.42817 3.98301 5.20016 3.98301H6.80017C7.57218 3.98301 8.20017 4.61121 8.20017 5.383V5.983H8.20021Z" />
    <path d="M8.40036 8.38379H7.20036C7.08997 8.38379 7.00037 8.47318 7.00037 8.58378C7.00037 8.69417 6.91058 8.78377 6.80038 8.78377H5.20037C5.09016 8.78377 5.00038 8.69417 5.00038 8.58378C5.00038 8.47318 4.91077 8.38379 4.80038 8.38379H3.60038C3.48999 8.38379 3.40039 8.47318 3.40039 8.58378V9.38377C3.40039 10.3764 4.208 11.1838 5.20039 11.1838H6.8004C7.79279 11.1838 8.6004 10.3764 8.6004 9.38377V8.58378C8.60035 8.47318 8.51075 8.38379 8.40036 8.38379ZM8.20037 9.38377C8.20037 10.1556 7.57236 10.7838 6.80038 10.7838H5.20037C4.42836 10.7838 3.80038 10.1556 3.80038 9.38377V8.78377H4.63459C4.71716 9.01658 4.93955 9.18378 5.20037 9.18378H6.80038C7.06119 9.18378 7.28359 9.01658 7.36618 8.78377H8.20039V9.38377H8.20037Z" />
    <path d="M8.40036 5.9834H7.20036C7.08997 5.9834 7.00037 6.07279 7.00037 6.18339C7.00037 6.29378 6.91058 6.38338 6.80037 6.38338H5.20037C5.09016 6.38338 5.00038 6.29378 5.00038 6.18339C5.00038 6.07279 4.91077 5.9834 4.80038 5.9834H3.60038C3.48999 5.9834 3.40039 6.07279 3.40039 6.18339V8.5834C3.40039 8.694 3.48999 8.78339 3.60038 8.78339H4.80038C4.91077 8.78339 5.00038 8.694 5.00038 8.5834C5.00038 8.47301 5.09016 8.38341 5.20037 8.38341H6.80037C6.91058 8.38341 7.00037 8.47301 7.00037 8.5834C7.00037 8.694 7.08997 8.78339 7.20036 8.78339H8.40036C8.51075 8.78339 8.60035 8.694 8.60035 8.5834V6.18339C8.60035 6.07279 8.51075 5.9834 8.40036 5.9834ZM8.20016 8.38341H7.36595C7.28354 8.1506 7.06095 7.9834 6.80014 7.9834H5.20013C4.93932 7.9834 4.71692 8.1506 4.63433 8.38341H3.80012V6.38341H4.6343C4.7169 6.61621 4.9393 6.78342 5.20011 6.78342H6.80012C7.06093 6.78342 7.28333 6.61621 7.36592 6.38341H8.20013V8.38341H8.20016Z" />
  </g>
  <defs>
    <clipPath id="clip0">
      <rect y="0.183594" width="12" height="12" />
    </clipPath>
  </defs>
</svg>
