<svg width="23" height="17" viewBox="0 0 23 17" fill="none" xmlns="http://www.w3.org/2000/svg">
<path d="M22.6632 0.339025C22.2141 -0.113008 21.486 -0.113008 21.0368 0.339025L7.25912 14.206L1.9632 8.87579C1.51411 8.42376 0.78602 8.4238 0.336846 8.87579C-0.112282 9.32778 -0.112282 10.0606 0.336846 10.5126L6.44595 16.6611C6.89489 17.1131 7.62353 17.1128 8.07229 16.6611L22.6632 1.97589C23.1123 1.5239 23.1123 0.791058 22.6632 0.339025Z"/>
</svg>
