<svg width="21" height="21" viewBox="0 0 21 21" fill="none" xmlns="http://www.w3.org/2000/svg">
<path d="M10.5 0C4.7103 0 0 4.7103 0 10.5C0 16.2897 4.7103 21 10.5 21C16.2897 21 21 16.2897 21 10.5C21 4.7103 16.2897 0 10.5 0ZM10.5 18.7658C5.94229 18.7658 2.23401 15.0579 2.23401 10.5C2.23401 5.94208 5.94229 2.23422 10.5 2.23422C15.0577 2.23422 18.766 5.94208 18.766 10.5C18.766 15.0579 15.0577 18.7658 10.5 18.7658Z" fill="white"/>
<path d="M15.9723 10.1759H11.2535V4.50225C11.2535 4.0248 10.8664 3.6377 10.389 3.6377C9.91152 3.6377 9.52441 4.0248 9.52441 4.50225V11.0404C9.52441 11.5179 9.91152 11.905 10.389 11.905H15.9723C16.4497 11.905 16.8368 11.5179 16.8368 11.0404C16.8368 10.563 16.4497 10.1759 15.9723 10.1759Z" fill="white"/>
</svg>
