<svg width="23" height="20" viewBox="0 0 23 20" fill="none" xmlns="http://www.w3.org/2000/svg">
<path d="M14.6623 14.6726L12.4581 16.6812V8.73389H10.5415V16.6812L8.33729 14.6726L6.99561 15.8952L11.4998 19.9999L16.004 15.8952L14.6623 14.6726Z" fill="white"/>
<path d="M17.7292 4.27938H17.6334C16.675 1.74669 13.9917 0 10.925 0C6.99582 0 3.7375 2.96933 3.7375 6.55003C3.7375 6.72471 3.7375 6.81203 3.7375 6.98671C1.62918 6.98671 0 8.55872 0 10.48C0 12.4014 1.725 13.9734 3.83332 13.9734H8.625V12.2267H3.83332C2.68332 12.2267 1.82082 11.528 1.82082 10.48C1.82082 9.43204 2.77914 8.64604 3.83332 8.64604C4.12082 8.64604 4.3125 8.73336 4.50414 8.82072L6.32495 9.5194L5.84582 7.77271C5.75 7.42339 5.65414 6.98671 5.65414 6.55003C5.65414 3.93002 8.04996 1.74669 10.925 1.74669C13.3208 1.74669 15.4291 3.23137 16.1 5.58938L16.2916 6.37539L17.1541 6.20071C17.3458 6.11339 17.5375 6.11339 17.7291 6.11339C19.6458 6.11339 21.1791 7.51071 21.1791 9.17008C21.1791 10.8294 19.55 12.2267 17.7292 12.2267H14.375V13.9734H17.7292C20.6042 13.9734 23 11.7027 23 9.08272C23 6.46271 20.6042 4.27938 17.7292 4.27938Z" fill="white"/>
</svg>
