<svg width="16" height="16" viewBox="0 0 16 16" fill="none" xmlns="http://www.w3.org/2000/svg">
<path d="M15.9971 5.5998C15.9707 5.14354 15.428 4.787 14.3427 4.515C14.3792 4.435 14.3997 4.3518 14.4 4.2654V2.3998H14.3955C14.3 0.845671 7.93147 0.799805 7.2 0.799805C6.46853 0.799805 0.1 0.845671 0.00453333 2.3998H0V2.43447V4.2662C0.00133333 4.77287 0.6552 5.1694 1.628 5.4646C1.61467 5.50887 1.60667 5.55394 1.604 5.5998H1.6V5.63447V7.463C0.552 7.73287 0.0285333 8.08434 0.00266667 8.53314H0V8.5678V10.3995C0.0008 10.7523 0.318933 11.0515 0.839467 11.3009C0.819733 11.355 0.807467 11.4102 0.804 11.4667H0.8V11.5014V13.3331C0.802133 14.2201 2.7992 14.7707 5.01813 15.0278C5.0344 15.031 5.04933 15.0377 5.06667 15.0377C5.07173 15.0377 5.076 15.035 5.08107 15.0347C5.5088 15.083 5.94347 15.1206 6.3736 15.1475C6.38267 15.1486 6.39067 15.1529 6.4 15.1529C6.40507 15.1529 6.40907 15.1502 6.41387 15.1499C6.96 15.183 7.49733 15.1998 8 15.1998C8.50267 15.1998 9.04 15.183 9.58613 15.1497C9.59093 15.1499 9.5952 15.1526 9.6 15.1526C9.60933 15.1526 9.61733 15.1481 9.6264 15.1473C10.0565 15.1203 10.4912 15.083 10.9189 15.0345C10.924 15.0345 10.9283 15.0371 10.9333 15.0371C10.9507 15.0371 10.9656 15.0305 10.9819 15.0273C13.2008 14.7702 15.1976 14.2193 15.2 13.3321V11.4665H15.1957C15.1771 11.1395 14.8984 10.8667 14.348 10.6387C14.3816 10.5617 14.4 10.4817 14.4 10.3987V8.6558C15.3573 8.3614 15.9987 7.96754 16 7.4654V5.5998H15.9971ZM13.8379 10.4854L13.7469 10.5651C13.6069 10.6886 13.3736 10.8131 13.0667 10.9331V9.66167C13.3837 9.55127 13.6536 9.42887 13.8667 9.29474V10.3982C13.8667 10.4257 13.8565 10.455 13.8379 10.4854ZM7.8736 11.7246C7.83467 11.7257 7.79547 11.7262 7.75627 11.727C7.66107 11.7289 7.56347 11.7294 7.46693 11.7302V10.3982C7.54027 10.3974 7.6136 10.3963 7.68693 10.395C7.70107 10.3947 7.7152 10.3945 7.72933 10.3942C7.99787 10.3891 8.2664 10.3809 8.5336 10.3686V11.7001C8.47653 11.703 8.4192 11.7057 8.36133 11.7081C8.2008 11.7153 8.03867 11.7206 7.8736 11.7246ZM6.70907 11.7283C6.58693 11.7262 6.46533 11.7233 6.34453 11.7195C6.3296 11.719 6.31467 11.7185 6.29973 11.7179C6.1544 11.7131 6.01013 11.707 5.86693 11.7001V10.3689C6.13413 10.3814 6.40267 10.3897 6.6712 10.3945C6.68533 10.3947 6.69947 10.395 6.71333 10.3953C6.78667 10.3966 6.86 10.3977 6.93333 10.3985V11.7313C6.8816 11.7307 6.82987 11.7307 6.7784 11.7299C6.75493 11.7294 6.73227 11.7286 6.70907 11.7283ZM1.89253 11.1203C1.88373 11.1177 1.87547 11.1153 1.86667 11.1129V9.8246C2.11573 9.8918 2.38347 9.95314 2.66667 10.0089V11.3105C2.42187 11.2585 2.196 11.2038 1.9904 11.1478C1.95787 11.1385 1.92427 11.1297 1.89253 11.1203ZM7.51333 13.3286C7.58667 13.3299 7.66 13.331 7.73333 13.3318V14.6649C7.3648 14.6614 7.00907 14.6507 6.66667 14.6339V13.3025C6.93387 13.315 7.2024 13.3233 7.47093 13.3281C7.48507 13.3281 7.4992 13.3283 7.51333 13.3286ZM8.52907 13.3278C8.7976 13.3227 9.06613 13.3145 9.33333 13.3022V14.6337C8.99093 14.6505 8.6352 14.6611 8.26667 14.6646V13.3315C8.34 13.3307 8.41333 13.3297 8.48667 13.3283C8.5008 13.3283 8.51493 13.3281 8.52907 13.3278ZM10.6667 13.2073V14.5315C10.4104 14.5585 10.1437 14.5822 9.86667 14.6017V13.2718C10.1371 13.2542 10.4043 13.2326 10.6667 13.2073ZM11.2 13.1497C11.4749 13.1166 11.7419 13.079 12 13.0371V14.3465C11.7488 14.3907 11.4819 14.4315 11.2 14.4686V13.1497ZM12.5333 12.9419C12.8165 12.8862 13.0843 12.8249 13.3333 12.7577V14.0459C13.0957 14.1145 12.8283 14.1809 12.5333 14.2435V12.9419ZM3.46667 12.9419V14.2435C3.17173 14.1809 2.90427 14.1145 2.66667 14.0459V12.7577C2.91573 12.8249 3.18347 12.8865 3.46667 12.9419ZM4 13.0374C4.25813 13.0793 4.52507 13.1169 4.8 13.1499V14.4689C4.51813 14.4318 4.2512 14.391 4 14.3467V13.0374ZM5.33333 13.2073C5.59573 13.2326 5.86293 13.2542 6.13333 13.2721V14.6019C5.85627 14.5825 5.5896 14.5587 5.33333 14.5318V13.2073ZM4.67173 11.6126C4.64453 11.6099 4.6176 11.607 4.59067 11.6043C4.57147 11.6025 4.55253 11.6001 4.53333 11.5982V10.2742C4.79573 10.2995 5.06293 10.3211 5.33333 10.339V11.6678C5.10933 11.6518 4.888 11.6337 4.67173 11.6126ZM4 10.2163V11.5353C3.71813 11.4982 3.4512 11.4574 3.2 11.4131V10.1038C3.45813 10.1457 3.72507 10.1835 4 10.2163ZM9.24427 11.6553C9.1856 11.6598 9.1264 11.6643 9.06667 11.6686V10.3387C9.33707 10.3209 9.60427 10.2995 9.86667 10.2739V11.5982C9.70187 11.6155 9.53333 11.6318 9.36027 11.6459C9.3216 11.6494 9.28293 11.6523 9.24427 11.6553ZM10.4 11.5353V10.2163C10.6749 10.1833 10.9419 10.1457 11.2 10.1038V11.4131C10.9488 11.4574 10.6819 11.4985 10.4 11.5353ZM11.7333 10.0086C12.0165 9.95287 12.2843 9.89154 12.5333 9.82434V11.1126C12.2957 11.1811 12.0283 11.2475 11.7333 11.3102V10.0086ZM8.08667 8.79047C7.88613 8.7854 7.69013 8.77767 7.4976 8.76834C7.4872 8.7678 7.4768 8.76727 7.46667 8.767V7.43554C7.73387 7.44807 8.0024 7.45634 8.27093 7.46114C8.28507 7.4614 8.2992 7.46167 8.31307 7.46194C8.3864 7.46327 8.45973 7.46434 8.53307 7.46514V8.7966C8.4032 8.79527 8.27227 8.79474 8.1456 8.7918C8.12613 8.79127 8.10613 8.791 8.08667 8.79047ZM1.86667 4.97954V3.69127C2.11573 3.75847 2.38347 3.8198 2.66667 3.87554V5.17714C2.63387 5.1702 2.6 5.16327 2.568 5.15634C2.42613 5.12514 2.28773 5.0926 2.15547 5.0582C2.05467 5.03234 1.95893 5.00594 1.86667 4.97954ZM6.71333 4.26194C6.78667 4.26327 6.86 4.26434 6.93333 4.26514V5.5966C6.5744 5.59314 6.2176 5.5838 5.86667 5.5662V4.2358C6.13387 4.24834 6.4024 4.2566 6.67093 4.2614C6.68507 4.2614 6.6992 4.26167 6.71333 4.26194ZM7.72907 4.26114C7.9976 4.25607 8.26613 4.2478 8.53333 4.23554V5.56594C8.488 5.56807 8.44453 5.57127 8.39893 5.5734C8.3952 5.57367 8.39147 5.57367 8.38747 5.57394C8.20853 5.58194 8.02613 5.5878 7.84133 5.59207C7.81253 5.59287 7.78373 5.59314 7.75493 5.59394C7.66 5.5958 7.56293 5.59607 7.46667 5.59714V4.26514C7.54 4.26434 7.61333 4.26327 7.68667 4.26194C7.7008 4.26167 7.71493 4.2614 7.72907 4.26114ZM13.8056 4.395L13.7981 4.3934L13.7011 4.46887C13.5603 4.57847 13.344 4.6894 13.0667 4.7966V3.52807C13.3837 3.41767 13.6536 3.29527 13.8667 3.16114V4.2646C13.8667 4.30514 13.8453 4.34887 13.8056 4.395ZM10.4 5.40034V4.083C10.6749 4.04994 10.9419 4.01234 11.2 3.97047V5.27767C10.9472 5.32247 10.6811 5.36354 10.4 5.40034ZM11.7333 5.175V3.87554C12.0165 3.8198 12.2843 3.75847 12.5333 3.69127V4.9766C12.2944 5.0462 12.0253 5.1126 11.7333 5.175ZM9.86667 4.1406V5.46327C9.60907 5.49047 9.3424 5.5142 9.06667 5.53394V4.2054C9.33707 4.18754 9.60427 4.16594 9.86667 4.1406ZM4.53333 5.4638V4.1406C4.79573 4.16594 5.06293 4.18754 5.33333 4.2054V5.53287C5.06187 5.5134 4.79413 5.49127 4.53333 5.4638ZM4 4.083V5.4006C3.9472 5.39367 3.89227 5.38807 3.84 5.38087C3.80587 5.37607 3.77333 5.371 3.73973 5.3662C3.5856 5.34407 3.43493 5.32034 3.2872 5.29554C3.2576 5.29047 3.22907 5.28514 3.2 5.28007V3.97074C3.45813 4.01234 3.72507 4.0502 4 4.083ZM6.8672 8.7302C6.8312 8.72754 6.79493 8.72487 6.7592 8.7222C6.58853 8.70887 6.42187 8.6942 6.2592 8.67794C6.22427 8.67447 6.18933 8.67074 6.15467 8.66727C6.14747 8.66647 6.14053 8.6654 6.13333 8.66487V7.3406C6.39573 7.36594 6.66293 7.38754 6.93333 7.4054V8.73447C6.91173 8.73287 6.8888 8.7318 6.8672 8.7302ZM5.10533 8.531C4.99973 8.5142 4.90053 8.49607 4.8 8.47847V7.17074C5.05813 7.2126 5.32507 7.2502 5.6 7.28327V8.6022C5.4368 8.5806 5.27707 8.5582 5.12373 8.5342C5.1176 8.53287 5.11147 8.5318 5.10533 8.531ZM4.26667 7.07527V8.37474C3.972 8.31154 3.7048 8.24434 3.46667 8.17447V6.891C3.71573 6.9582 3.98347 7.0198 4.26667 7.07527ZM2.93333 6.72807V7.995C2.51413 7.83314 2.24373 7.6678 2.15573 7.5206L2.13787 7.49074C2.13627 7.48247 2.1336 7.47367 2.13333 7.4654V6.36114C2.3464 6.49527 2.61627 6.61767 2.93333 6.72807ZM9.32907 7.46114C9.5976 7.45607 9.86613 7.4478 10.1333 7.43554V8.76567C9.78293 8.783 9.42667 8.7926 9.06667 8.79634V7.46514C9.14 7.46434 9.21333 7.46327 9.28667 7.46194C9.3008 7.46167 9.31493 7.4614 9.32907 7.46114ZM12.7752 8.48434C12.6581 8.5046 12.54 8.5246 12.4187 8.543C12.3491 8.55367 12.2779 8.5638 12.2064 8.57394C12.1389 8.58354 12.0688 8.5918 12.0003 8.6006V7.283C12.2752 7.24994 12.5421 7.21234 12.8003 7.17047V8.4798C12.7917 8.4814 12.7835 8.483 12.7752 8.48434ZM10.9696 8.71207C10.8701 8.72034 10.7675 8.72567 10.6667 8.73287V7.4054C10.9371 7.38754 11.2043 7.3662 11.4667 7.3406V8.66354C11.3117 8.6798 11.1571 8.69607 10.9979 8.7094C10.9883 8.7102 10.9792 8.71127 10.9696 8.71207ZM14.0171 8.21207C13.8843 8.24914 13.7437 8.2838 13.6003 8.31767C13.5339 8.33314 13.4661 8.3486 13.3968 8.36354C13.3763 8.36807 13.3544 8.37207 13.3336 8.3766V7.07554C13.6168 7.0198 13.8845 6.95847 14.1336 6.89127V8.17954C14.0952 8.1902 14.0565 8.20114 14.0171 8.21207ZM15.4637 5.61714C15.4392 5.7982 15.0288 6.039 14.2963 6.2654C13.3528 6.55687 11.8765 6.8238 10.0056 6.90647C9.90987 6.91047 9.8144 6.91447 9.7168 6.91767C9.63707 6.92034 9.55707 6.92274 9.47573 6.92487C9.25493 6.92967 9.03093 6.93314 8.8 6.93314C8.56907 6.93314 8.34507 6.92967 8.12427 6.9246C8.0432 6.92274 7.9632 6.92007 7.8832 6.9174C7.78533 6.91447 7.68987 6.9102 7.5944 6.9062C5.72347 6.82354 4.24693 6.5566 3.30373 6.26514C2.57707 6.0406 2.16747 5.80167 2.13707 5.6214C2.1384 5.61634 2.1384 5.61207 2.1416 5.60567C2.15973 5.6102 2.18 5.61394 2.1984 5.61847C2.30267 5.64327 2.4096 5.66727 2.5184 5.6902C3.04827 5.80434 3.63547 5.89794 4.26107 5.9694C4.2632 5.9694 4.2648 5.97047 4.26667 5.97047C4.2672 5.97047 4.26773 5.9702 4.268 5.9702C4.69413 6.01874 5.13627 6.05687 5.59013 6.0838C5.5936 6.0838 5.59653 6.08567 5.6 6.08567C5.60187 6.08567 5.6032 6.0846 5.60507 6.0846C5.93173 6.1038 6.26267 6.11794 6.5976 6.1254C6.80267 6.13047 7.004 6.13314 7.2 6.13314C7.34 6.13314 7.48347 6.13154 7.62827 6.12887C9.56587 6.099 11.3616 5.8686 12.6112 5.51154C12.6688 5.49527 12.7251 5.47847 12.7805 5.46167C12.8144 5.45127 12.8491 5.44114 12.8819 5.43074C12.9784 5.3998 13.0709 5.36807 13.1603 5.335C13.1757 5.32914 13.1904 5.32327 13.2059 5.3174C13.2813 5.28887 13.3539 5.25927 13.4232 5.22914C13.4432 5.22034 13.4637 5.2118 13.4832 5.203C13.5571 5.16967 13.6285 5.13554 13.6947 5.10007C13.7245 5.08434 13.7504 5.06807 13.7784 5.05207C13.8104 5.03367 13.8424 5.015 13.872 4.99607C13.8888 4.9854 13.9088 4.97527 13.9248 4.9646C15.1187 5.22354 15.4333 5.50674 15.4637 5.61714ZM7.2 1.33314C11.5971 1.33314 13.8211 2.0254 13.8627 2.42274C13.8304 2.603 13.4211 2.84114 12.6963 3.06514C11.7528 3.3566 10.2765 3.62354 8.4056 3.7062C8.30987 3.7102 8.2144 3.7142 8.1168 3.7174C8.03707 3.72007 7.95707 3.72247 7.87573 3.7246C7.65493 3.72967 7.43093 3.73314 7.2 3.73314C6.96907 3.73314 6.74507 3.72967 6.52427 3.7246C6.4432 3.72274 6.3632 3.72007 6.2832 3.7174C6.18533 3.71447 6.08987 3.7102 5.9944 3.7062C4.12347 3.62354 2.64693 3.3566 1.70373 3.06514C0.978667 2.84114 0.5696 2.603 0.537333 2.42274C0.578933 2.0254 2.80293 1.33314 7.2 1.33314ZM0.533333 4.2654V3.16114C0.7464 3.29527 1.01627 3.41767 1.33333 3.52807V4.80487C0.814667 4.61047 0.533867 4.41554 0.533333 4.2654ZM1.82507 7.9558C1.82907 7.96007 1.8352 7.9638 1.8392 7.96807C2.20427 8.3366 2.96027 8.6262 3.90133 8.8422C3.92293 8.84727 3.94587 8.85207 3.96773 8.85714C4.0368 8.8726 4.10693 8.8878 4.17787 8.90247C5.04213 9.08647 6.07387 9.21954 7.19787 9.2854C7.19867 9.2854 7.1992 9.28567 7.19973 9.28567C7.20027 9.28567 7.20053 9.2854 7.2008 9.2854C7.56187 9.30647 7.9312 9.32114 8.30827 9.32754C8.4752 9.331 8.63947 9.33314 8.8 9.33314C8.984 9.33314 9.1728 9.331 9.3648 9.32647C9.7136 9.31927 10.0573 9.30487 10.3963 9.28514C10.3976 9.28514 10.3987 9.28594 10.4 9.28594C10.4024 9.28594 10.4043 9.2846 10.4067 9.2846C11.5336 9.2182 12.5909 9.0838 13.4851 8.89047C13.2915 8.9918 13.0264 9.0966 12.6963 9.19874C11.7003 9.50647 10.1096 9.78674 8.088 9.8518C8.028 9.85367 7.9688 9.8558 7.908 9.8574C7.84267 9.859 7.77627 9.86007 7.70987 9.8614C7.54213 9.86407 7.37333 9.86647 7.2 9.86647C6.96907 9.86647 6.74507 9.863 6.52427 9.85794C6.4432 9.85607 6.3632 9.8534 6.2832 9.85074C6.18533 9.84781 6.08987 9.84354 5.9944 9.83954C4.12347 9.75687 2.64693 9.48994 1.70373 9.19847C0.9704 8.9718 0.56 8.73074 0.536267 8.54967C0.565867 8.4494 0.835467 8.19847 1.82507 7.9558ZM0.533333 10.3987V9.29447C0.7464 9.4286 1.01627 9.551 1.33333 9.6614V10.9331L1.18107 10.8739L1.17787 10.8771C0.7592 10.7035 0.533867 10.5331 0.533333 10.3987ZM1.33333 13.3321V12.2278C1.5464 12.3619 1.81627 12.4843 2.13333 12.5947V13.8715C1.61467 13.6771 1.33387 13.4822 1.33333 13.3321ZM13.8667 13.8715V12.595C14.1837 12.4846 14.4536 12.3622 14.6667 12.2281V13.3315C14.6664 13.4817 14.3853 13.6769 13.8667 13.8715ZM14.6632 11.487C14.6341 11.6675 14.2245 11.907 13.4963 12.1321C12.5528 12.4235 11.0765 12.6905 9.2056 12.7731C9.10987 12.7771 9.0144 12.7811 8.9168 12.7843C8.83707 12.787 8.75707 12.7894 8.67573 12.7915C8.45493 12.7963 8.23093 12.7998 8 12.7998C7.76907 12.7998 7.5448 12.7963 7.32373 12.7913C7.24347 12.7894 7.16427 12.7867 7.08507 12.7841C6.98667 12.7809 6.89067 12.7769 6.7944 12.7729C4.92347 12.6902 3.4472 12.4233 2.50373 12.1318C1.7984 11.9139 1.39093 11.6825 1.33973 11.5038C1.4192 11.5315 1.5016 11.5585 1.58613 11.5849C1.59467 11.5875 1.6032 11.5902 1.61173 11.5926C1.68373 11.6147 1.75733 11.6361 1.8328 11.6569C1.86133 11.6649 1.89013 11.6729 1.9192 11.6806C1.96187 11.6921 2.0056 11.703 2.04933 11.7142C3.02053 11.963 4.26027 12.1393 5.59867 12.2185C5.5992 12.2185 5.59947 12.2187 5.6 12.2187C5.60027 12.2187 5.60053 12.2185 5.6008 12.2185C6.01413 12.243 6.43627 12.2582 6.86293 12.2633C6.97653 12.2654 7.08933 12.2665 7.2 12.2665C7.34693 12.2665 7.49733 12.2646 7.6496 12.2619C8.03867 12.2555 8.42267 12.2411 8.79813 12.2187C8.79893 12.2187 8.79947 12.2193 8.80027 12.2193C8.8016 12.2193 8.8024 12.2185 8.80373 12.2185C9.26107 12.191 9.70373 12.1518 10.1291 12.103C10.1307 12.103 10.132 12.1038 10.1336 12.1038C10.1395 12.1038 10.1443 12.1009 10.1501 12.1003C10.6237 12.0457 11.0728 11.9785 11.4896 11.9003C11.5755 11.8846 11.66 11.8683 11.7437 11.8515C11.7624 11.8478 11.7811 11.8441 11.7997 11.8401C12.5872 11.6785 13.2688 11.4691 13.7365 11.2097C13.7621 11.1958 13.7861 11.1814 13.8104 11.1673C13.84 11.1497 13.8683 11.1318 13.8957 11.1137C13.9213 11.0971 13.9509 11.0811 13.9744 11.0643C14.5008 11.2521 14.6459 11.4201 14.6632 11.487ZM14.6667 8.00487V6.72834C14.9837 6.61794 15.2536 6.49554 15.4667 6.3614V7.46487C15.4664 7.615 15.1853 7.8102 14.6667 8.00487Z" fill="black"/>
</svg>
