<svg data-v-98bf9e7e=""
  xmlns="http://www.w3.org/2000/svg" viewBox="0 0 7 7" class="bars-icon inline-icon base">
  <path d="M7 .7L6.3 0 3.5 2.8.7 0 0 .7l2.8 2.8L0 6.3l.7.7 2.8-2.8L6.3 7l.7-.7-2.8-2.8z" data-name="Фигура 2" fill="currentColor" fill-rule="evenodd"></path>
</svg>